{
  "local_dir": "/home/pi2/.unix_chat",
  "remote_user": "pi2",
  "remote_host": "localhost",
  "remote_port": 8080,
  "remote_dir": "/home/pi2/.srv_unix_chat",
  "remote_cert": "server_cert.pem",
  "server_key": "server_key.pem"
}
